…
Finding, recoding, and omitting missing values:

``` r
  sum(is.na(penguins))
```

    ## [1] 19

``` r
  penguins$flipper_length_mm[penguins$flipper_length_mm == 99] <- NA
  na.omit(penguins)
```

    ## # A tibble: 333 x 8
    ##    species island bill_length_mm bill_depth_mm flipper_length_~ body_mass_g
    ##    <fct>   <fct>           <dbl>         <dbl>            <int>       <int>
    ##  1 Adelie  Torge~           39.1          18.7              181        3750
    ##  2 Adelie  Torge~           39.5          17.4              186        3800
    ##  3 Adelie  Torge~           40.3          18                195        3250
    ##  4 Adelie  Torge~           36.7          19.3              193        3450
    ##  5 Adelie  Torge~           39.3          20.6              190        3650
    ##  6 Adelie  Torge~           38.9          17.8              181        3625
    ##  7 Adelie  Torge~           39.2          19.6              195        4675
    ##  8 Adelie  Torge~           41.1          17.6              182        3200
    ##  9 Adelie  Torge~           38.6          21.2              191        3800
    ## 10 Adelie  Torge~           34.6          21.1              198        4400
    ## # ... with 323 more rows, and 2 more variables: sex <fct>, year <int>
…
